\begin{tabular}{lllllll}
\toprule
 Security &   Sample &           RV &           BV &    RV -- BV &         RJ &  Test stat \\
\midrule
    .FTAS &     mean &      0.00010 &      0.00007 &     0.00003 &    0.17981 &    1.26539 \\
          &  std dev &      0.00031 &      0.00018 &     0.00017 &    0.23460 &    1.64393 \\
          &     skew &     14.21065 &     12.39554 &    18.24130 &    0.60622 &    0.63492 \\
          &     kurt &    267.91237 &    212.17166 &   439.90124 &   -0.10071 &   -0.00026 \\
          &    LB\_15 &   6800.16908 &   9425.54135 &  1804.28771 &  208.81123 &  184.62082 \\
          &    p-val &      0.00000 &      0.00000 &     0.00000 &    0.00000 &    0.00000 \\
  .FTELUK &     mean &      0.00015 &      0.00012 &     0.00003 &    0.12254 &    0.86250 \\
          &  std dev &      0.00070 &      0.00034 &     0.00040 &    0.19982 &    1.37998 \\
          &     skew &     38.03381 &     21.61191 &    47.54185 &    0.67794 &    0.69701 \\
          &     kurt &   1697.61859 &    678.33034 &  2453.11001 &    0.58692 &    0.62860 \\
          &    LB\_15 &    382.78518 &   3390.36629 &    30.51644 &  206.36051 &  202.35728 \\
          &    p-val &      0.00000 &      0.00000 &     0.01019 &    0.00000 &    0.00000 \\
  .FTUNUS &     mean &      0.00024 &      0.00020 &     0.00004 &    0.11628 &    0.71222 \\
          &  std dev &      0.00065 &      0.00053 &     0.00020 &    0.21187 &    1.27968 \\
          &     skew &      7.54947 &      6.11559 &    17.52728 &    0.55601 &    0.63406 \\
          &     kurt &     84.01751 &     48.07645 &   481.98373 &    0.11876 &    0.33492 \\
          &    LB\_15 &  19025.47897 &  21534.88428 &  1606.26851 &   34.78827 &   34.56346 \\
          &    p-val &      0.00000 &      0.00000 &     0.00000 &    0.00264 &    0.00284 \\
     .SPX &     mean &      0.00011 &      0.00008 &     0.00002 &    0.17060 &    1.04914 \\
          &  std dev &      0.00027 &      0.00024 &     0.00008 &    0.23621 &    1.45189 \\
          &     skew &      8.57233 &     11.06369 &     8.91344 &    0.53157 &    0.57580 \\
          &     kurt &    105.06441 &    184.11900 &   120.79872 &   -0.04185 &    0.10986 \\
          &    LB\_15 &  16012.85020 &  13883.42165 &  1069.71734 &   95.56375 &   82.48368 \\
          &    p-val &      0.00000 &      0.00000 &     0.00000 &    0.00000 &    0.00000 \\
 .WILREIT &     mean &      0.00017 &      0.00013 &     0.00004 &    0.17747 &    1.06295 \\
          &  std dev &      0.00036 &      0.00029 &     0.00014 &    0.23929 &    1.42618 \\
          &     skew &      6.11055 &      7.30756 &     8.51699 &    0.50922 &    0.58169 \\
          &     kurt &     49.98708 &     75.37742 &   105.29183 &   -0.17990 &    0.03473 \\
          &    LB\_15 &  12041.20872 &  10949.82302 &   945.15940 &   11.89531 &   12.67544 \\
          &    p-val &      0.00000 &      0.00000 &     0.00000 &    0.68694 &    0.62735 \\
\bottomrule
\end{tabular}
\caption{Descriptive statistics for daily BNS statistics using 15 minute returns. RJ denotes the proportion of the daily realised variance that is attributable to jumps, that is RJ $\equiv$ (RV -- BV)/RV. Excess kurtosis is reported. CHANGE TEST STAT to ZpowBNS, ADD REFERENCE TO SAMPLE PERIODS..., CENTRE COLUMN NAMES, REDUCE D.P. FOR SKEW AND KURT} 
\label{tab:BNSdescriptiveStats_15m} 
